{
	"nbSteps": 4,
	"nbSystemDisplayed": 2,
	"prefix": "",
	"headersCSV": ["text", "image", "video", "speech"],

"//OPTIONAL": "__Optional parmeters are below__",
	"name": "Perceptual Test: MUSHRA Test Example",
	"author": "IRISA/Expression",
	"description": "Example of MUSHRA-like test",
	"nbFixedPosition": 0,
	"nbIntroductionSteps": 2,
	"useMedia": ["speech"]
}
